date,day,deadlift_sets,deadlift_reps,deadlift_lb,press_sets,press_reps,press_lb,squat_sets,squat_reps,squat_lb,bench_sets,bench_reps,bench_lb,clean_sets,clean_reps,clean_lb,chinup_sets,chinup_reps,chinup_lb,erg_2K,erg_5K,run_dist,run_pace,run_5K,plank,bike,other,notes,leg_press,,,leg extensions,,,leg curls,,
4/1/19,-10,,,,,,,,,,,,,,,,,,,7:46,,,,,,,biked 15 minutes,,,,,,,,,,
4/2/19,-9,,,,,,,,,,,,,,,,,,,7:48,20:37,,,,,,"20 angled situps. Bicep Curls, Tricep pulls, behind head yanks, shoulder flaps.",power 10 every 500,,,,,,,,,
4/3/19,-8,,,,,,,,,,,,,,,,,,,7:50,20:51,,,,,,,,,,,,,,,,
4/4/19,-7,,,,,,,,,,,,,,,,,,,7:46,,,,,2:00,,,,,,,,,,,,
4/5/19,-6,,,,,,,,,,,,,,,,,,,,,,,,,,,,,,,,,,,,
4/6/19,-5,,,,,,,,,,,,,,,,,,,,,,,,,,,,,,,,,,,,
4/7/19,-4,,,,,,,,,,,,,,,,,,,,,,,,,,,,,,,,,,,,
4/8/19,-3,,,,,,,,,,,,,,,,,,,7:42,20:44,,,,3:00,,,,,,,,,,,,
4/9/19,-2,,,,,,,,,,,,,,,,,,,8:17,,,,,,,,,,,,,,,,,
4/10/19,-1,,,,,,,,,,,,,,,,,,,7:49,,,,,,,,,,,,,,,,,
4/11/19,0,,,,,,,,,,,,,,,,,,,7:40,20:38,,,,3:00,,,,,,,,,,,,
4/12/19,1,1,5,105,3,5,65,3,5,105,,,,,,,,,,8:22,,,,,,,,starting strenght day 1,,,,,,,,,
4/13/19,2,,,,,,,,,,,,,,,,,,,,,,,,,,,,,,,,,,,,
4/14/19,3,,,,,,,,,,,,,,,,,,,,,4.15,10:00,31:04:00,,,,,,,,,,,,,
4/15/19,4,1,5,105,,,,3,5,105,3,5,105,,,,,,,,,,,,,,"calf raises, bicep curls",,,,,,,,,,
4/16/19,5,,,,,,,,,,,,,,,,,,,7:49,20:52,,,,,30:00:00,,realized that my back isn't straight when I row,,,,,,,,,
4/17/19,6,1,5,130,3,5,70,3,5,110,,,,,,,,,,,,,,,,,,attempting to increase by 5lb on every workout,,,,,,,,,
4/18/19,7,,,,3,5,75,,,,,,,,,,,,,7:53,21:00,,,,,,,,,,,,,,,,
4/19/19,8,,,,,,,,,,,,,,,,,,,,,,,,,,,,,,,,,,,,
4/20/19,9,1,5,155,,,,3,5,115,3,5,120,,,,,,,,,,,,,,,DC with wesley. Right shoulder became sore several hours after session.,,,,,,,,,
4/21/19,10,,,,,,,,,,,,,,,,,,,,,,,,,,,,,,,,,,,,
4/22/19,11,1,5,170,3,5,75,3,5,125,,,,,,,,,,,,,,,,,,,,,,,,,,,
4/23/19,12,,,,,,,,,,,,,,,,,,,,,,,,,,,,,,,,,,,,
4/24/19,13,1,5,180,3,5,80,3,5,135,,,,,,,,,,7:51,21:17,,,,,,,,,,,,,,,,
4/25/19,14,,,,,,,,,,3,5,125,,,,,,,7:43,,,,,,,,,,,,,,,,,
4/26/19,15,1,5,215,3,5,85,3,5,145,,,,,,,,,,,,,,,,,,"target increases: squat (10), press (5), bench press (5), deadlift (15)",,,,,,,,,
4/27/19,16,,,,,,,,,,,,,,,,,,,,,,,,,,,,,,,,,,,,
4/28/19,17,,,,,,,,,,,,,,,,,,,,,,,,,,,,,,,,,,,,
4/29/19,18,1,5,225,,,,3,5,155,3,5,130,,,,,,,,,,,,,,,"knees are swollen after workout and next day. During squat, accidentally used 145 for 2 sets, then added weight for 155 and did 3 more sets. So more work than usual. I decide to add only 5 pounds per workout on the squat to go easy on my knees, and to do leg extensions and leg curls to additionally strengthen knee.",,,,,,,,,
4/30/19,19,,,,,,,,,,,,,,,,,,,,,,,,,,,upset stomach. Did no work,,,,,,,,,
5/1/19,20,1,5,235,3,5,90,3,5,160,,,,,,,,,,,,,,,,,,deadlift is becoming difficult to hold onto.,,,,,,,,,
5/2/19,21,,,,,,,,,,,,,,,,,,,,,,,,,,,,,,,,,,,,
5/3/19,22,3,5,245,,,,,,,3,5,135,,,,,,,,,,,,,,,"switched to leg extensions/curls to replace squats, until knee swelling is gone.",,,,3,5,175,3,5,160
5/4/19,23,,,,,,,,,,,,,,,,,,,,,,,,,,,,,,,,,,,,
5/5/19,24,,,,,,,,,,,,,,,,,,,,,,,,,,,,,,,,,,,,
5/6/19,25,1,4,255,3,4,95,,,,,,,,,,,,,,,,,,,,,"starting phase 2, with power clean",3,5,310,3,5,190,3,5,165
5/7/19,26,,,,,,,,,,,,,,,,,,,7:36,20:39,,,,,,,,,,,,,,,,
5/8/19,27,1,5,255,,,,,,,3,5,140,,,,,,,,,,,,,,,,,,,3,5,195,,,
5/9/19,28,,,,,,,,,,,,,,,,,,,7:34,20:26,,,,,,,,,,,,,,,,
5/10/19,29,,,,3,4,100,,,,,,,5,3,100,,,,,,,,,,,,accidentally increased overhead press prematurely,3,5,348,,,,,,
5/11/19,30,,,,,,,,,,,,,,,,,,,,,,,,,,,,,,,,,,,,
5/12/19,31,,,,,,,,,,,,,,,,,,,,,,,,,,,,,,,,,,,,
5/13/19,32,1,3,260,,,,3,5,160,3,5,145,,,,,,,,,,,,,,,no chalk,,,,,,,,,
5/14/19,33,,,,,,,,,,,,,,,,,,,,,,,,,,,,,,,,,,,,
5/15/19,34,,,,3,3,100,3,4,165,,,,5,3,100,,,,,,,,,,,,did one full chinup,,,,,,,,,
5/16/19,35,,,,,,,,,,,,,,,,3,5,55,7:44,,,,,,,,,,,,,,,,,
5/17/19,36,1,2,265,,,,3,5,165,3,2,150,,,,3,5,45,,,,,,,,,no chalk,,,,,,,,,
5/18/19,37,,,,,,,,,,,,,,,,,,,,,,,,,,,,,,,,,,,,
5/19/19,38,,,,,,,,,,,,,,,,,,,,,,,,,,,,,,,,,,,,
5/20/19,39,,,,,,,,,,,,,,,,,,,,,,,,,,,was sick with heat exhaustion,,,,,,,,,
5/21/19,40,,,,,,,3,5,170,3,3,150,5,3,105,,,,,,,,,,,,,,,,,,,,,
5/22/19,41,1,5,260,3,2,100,3,5,175,,,,,,,3,5,40,,,,,,,,,used mixed grip on deadlift for last 2 reps,,,,,,,,,
5/23/19,42,,,,,,,,,,,,,,,,,,,,,,,,,,,,,,,,,,,,
5/24/19,43,,,,,,,3,5,180,3,4,150,5,3,110,,,,,,,,,,,,,,,,,,,,,
5/25/19,44,1,5,265,,5,95,3,5,185,,,,,,,,,,,,,,,,,,Last press rep was shaky,,,,,,,,,
5/26/19,45,,,,,,,,,,,,,,,,,,,,,,,,,,,,,,,,,,,,
5/27/19,46,,,,,,,,,,,,,,,,,,,,,,,,,,,,,,,,,,,,
5/28/19,47,1,5,270,,,,3,5,190,3,4,150,,,,,,,,,,,,,,,,,,,,,,,,
5/29/19,48,,,,3,5,97.5,3,5,195,,,,,,,3,5,35,,,,,,,,,,,,,,,,,,
5/30/19,49,,,,,,,,,,,,,,,,,,,,,,,,,,,,,,,,,,,,
5/31/19,50,1,5,275,,,,3,5,200,3,5,150,,,,,,,,,,,,,,,,,,,,,,,,
6/1/19,51,1,5,280,3,5,100,3,5,205,,,,,,,,,,,,,,,,,,,,,,,,,,,
6/2/19,52,,,,,,,,,,,,,,,,,,,,,,,,,,,,,,,,,,,,
6/3/19,53,1,5,285,,,,3,5,210,3,5,152.25,,,,,,,,,,,,,,,deadlift is starting to feel very exerting.,,,,,,,,,
6/4/19,54,,,,,,,,,,,,,,,,,,,,,,,,,,,,,,,,,,,,
6/5/19,55,,,,,,,,,,,,,,,,,,,,,,,,,,,,,,,,,,,,
6/6/19,56,,,,,,,,,,,,,,,,,,,,,,,,,,,,,,,,,,,,
6/7/19,57,,,,,,,,,,,,,,,,,,,,,,,,,,,,,,,,,,,,
6/8/19,58,,,,,,,,,,,,,,,,,,,,,,,,,,,,,,,,,,,,
6/9/19,59,,,,,,,,,,,,,,,,,,,,,,,,,,,,,,,,,,,,
6/10/19,60,,,,,,,,,,,,,,,,,,,,,,,,,,,,,,,,,,,,
6/11/19,61,,,,,,,,,,,,,,,,,,,,,,,,,,,,,,,,,,,,
6/12/19,62,,,,,,,,,,,,,,,,,,,,,,,,,,,,,,,,,,,,
6/13/19,63,,,,,,,,,,,,,,,,,,,,,,,,,,,,,,,,,,,,
6/14/19,64,,,,,,,,,,,,,,,,,,,,,,,,,,,,,,,,,,,,
6/15/19,65,,,,,,,,,,,,,,,,,,,,,,,,,,,,,,,,,,,,
6/16/19,66,,,,,,,,,,,,,,,,,,,,,,,,,,,,,,,,,,,,
6/17/19,67,,,,,,,,,,,,,,,,,,,,,,,,,,,,,,,,,,,,
6/18/19,68,,,,,,,,,,,,,,,,,,,,,,,,,,,,,,,,,,,,
6/19/19,69,1,5,290,3,5,100,3,5,215,,,,,,,3,5,30,,,,,,,,,,,,,,,,,,
6/20/19,70,,,,,,,,,,,,,,,,,,,,,,,,,,,,,,,,,,,,
6/21/19,71,,,,,,,,,,,,,,,,,,,,,,,,,,,,,,,,,,,,
6/22/19,72,,,,,,,,,,,,,,,,,,,,,,,,,,,,,,,,,,,,
6/23/19,73,,,,,,,,,,,,,,,,,,,,,,,,,,,,,,,,,,,,
6/24/19,74,,,,,,,,,,,,,,,,,,,,,,,,,,,,,,,,,,,,
6/25/19,75,,,,,,,,,,,,,,,,,,,,,,,,,,,,,,,,,,,,
6/26/19,76,,,,,,,,,,,,,,,,,,,,,,,,,,,,,,,,,,,,
6/27/19,77,1,4,292.5,,,,3,5,220,3,3,155,,,,,,,,,,,,,,,,,,,,,,,,
6/28/19,78,,,,,,,,,,,,,,,,,,,,,,,,,,,,,,,,,,,,
6/29/19,79,,,,,,,,,,,,,,,,,,,,,,,,,,,,,,,,,,,,
6/30/19,80,,,,,,,,,,,,,,,,,,,,,,,,,,,,,,,,,,,,
7/1/19,81,,,,3,4.66,102.5,3,5,225,,,,5,3,115,3,5,25,,,,,,,,,,,,,,,,,,
7/2/19,82,,,,,,,,,,,,,,,,,,,,,,,,,,,,,,,,,,,,
7/3/19,83,,,,,,,3,5,230,3,4,155,,,,,,,,,,,,,,,,,,,,,,,,
7/4/19,84,,,,,,,,,,,,,,,,,,,,,,,,,,,,,,,,,,,,
7/5/19,85,,,,,,,3,5,235,,,,,,,,,,,,,,,,,,,,,,,,,,,
7/6/19,86,,,,,,,,,,,,,,,,,,,,,,,,,,,,,,,,,,,,
7/7/19,87,,,,,,,,,,,,,,,,,,,,,,,,,,,,,,,,,,,,
7/8/19,88,1,5,292.5,3,5,102.5,3,5,240,,,,,,,3,5,20,,,,,,,,,,,,,,,,,,
7/9/19,89,,,,,,,,,,,,,,,,,,,,,,,,,,,,,,,,,,,,
7/10/19,90,,,,,,,3,5,245,,,,,,,3,5,15,,,,,,,,,,,,,,,,,,
7/11/19,91,,,,,,,,,,,,,,,,,,,,,,,,,,,,,,,,,,,,
7/12/19,92,1,3,295,,,,3,5,250,3,4.66,155,,,,,,,,,,,,,,,,,,,,,,,,
7/13/19,93,,,,,,,,,,,,,,,,,,,,,,,,,,,,,,,,,,,,
7/14/19,94,,,,,,,,,,,,,,,,,,,,,,,,,,,,,,,,,,,,
7/15/19,95,1,5,295,3,5,105,3,5,260,,,,,,,1,2,0,,,,,,,,,accidentally squatted more than planned,,,,,,,,,
7/16/19,96,,,,,,,,,,,,,,,,,,,,,,,,,,,,,,,,,,,,
7/17/19,97,1,5,297.5,,,,3,5,275,3,4.33,155,,,,3,4.33,10,,,,,,,,,most weights were in use; rounded up to 275 for squat. chin up might have been 4 or 4.66.,,,,,,,,,
7/18/19,98,,,,,,,,,,,,,,,,,,,,,,,,,,,,,,,,,,,,
7/19/19,99,,,,,,,,,,,,,,,,,,,,,,,,,,,did not work out on friday. was planning on doing saturday but did not.,,,,,,,,,
7/20/19,100,,,,,,,,,,,,,,,,,,,,,,,,,,,,,,,,,,,,
7/21/19,101,,,,,,,,,,,,,,,,,,,,,,,,,,,,,,,,,,,,
7/22/19,102,1,5,300,3,5,107.5,3,5,280,,,,,,,3,4,10,,,,,,,,,,,,,,,,,,
7/23/19,103,,,,,,,,,,,,,,,,,,,,,,,,,,,,,,,,,,,,
7/24/19,104,,,,,,,,,,,,,,,,,,,,,,,,,,,,,,,,,,,,
7/25/19,105,,,,,,,,,,,,,,,,,,,,,,,,,,,,,,,,,,,,
7/26/19,106,,,,,,,,,,,,,,,,,,,,,,,,,,,,,,,,,,,,
7/27/19,107,,,,,,,,,,,,,,,,,,,,,,,,,,,,,,,,,,,,
7/28/19,108,,,,,,,,,,,,,,,,,,,,,,,,,,,,,,,,,,,,
7/29/19,109,,,,3,5,110,3,4.66,285,,,,,,,,,,,,,,,,,,,,,,,,,,,
7/30/19,110,,,,,,,,,,,,,,,,,,,,,,,,,,,,,,,,,,,,
7/31/19,111,1,2,302.5,,,,3,5,285,,,,,,,,,,,,,,,,,,,,,,,,,,,
8/1/19,112,,,,,,,,,,,,,,,,,,,,,,,,,,,,,,,,,,,,
8/2/19,113,,,,,,,,,,,,,,,,3,5,10,7:50,,,,,,,,,,,,,,,,,
8/3/19,114,,,,,,,,,,,,,,,,,,,,,,,,,,,,,,,,,,,,
8/4/19,115,,,,,,,,,,,,,,,,,,,,,,,,,,,,,,,,,,,,
8/5/19,116,,,,,,,,,,,,,,,,,,,,,,,,,,,,,,,,,,,,
8/6/19,117,1,5,302.5,3,4.33,112.5,3,5,290,,,,,,,1,3,0,,,,,,,,,,,,,,,,,,
8/7/19,118,,,,,,,,,,,,,,,,,,,,,,,,,,,,,,,,,,,,
8/8/19,119,,,,,,,,,,,,,,,,,,,,,,,,,,,,,,,,,,,,
8/9/19,120,,,,,,,,,,,,,,,,,,,,,,,,,,,,,,,,,,,,
8/10/19,121,,,,,,,,,,,,,,,,,,,,,,,,,,,,,,,,,,,,
8/11/19,122,,,,,,,,,,,,,,,,,,,,,,,,,,,,,,,,,,,,
8/12/19,123,1,3,305,,,,3,5,295,3,5,155,,,,1,3,0,,,,,,,,,,,,,,,,,,
8/13/19,124,,,,,,,,,,,,,,,,,,,,,,,,,,,,,,,,,,,,
8/14/19,125,1,3,305,3,5,112.5,3,5,300,,,,,,,,,,,,,,,,,,,,,,,,,,,
8/15/19,126,,,,,,,,,,,,,,,,,,,,,,,,,,,,,,,,,,,,
8/16/19,127,1,5,305,,,,3,5,300,3,5,157.5,,,,,,,,,,,,,,,,,,,,,,,,
8/17/19,128,,,,,,,,,,,,,,,,,,,,,,,,,,,,,,,,,,,,
8/18/19,129,,,,,,,,,,,,,,,,,,,,,,,,,,,,,,,,,,,,
8/19/19,130,,,,,,,,,,,,,,,,,,,,,,,,,,,,,,,,,,,,
8/20/19,131,1,3,307.5,3,3,115,3,5,305,,,,,,,,,,,,,,,,,,,,,,,,,,,
8/21/19,132,,,,,,,,,,,,,,,,,,,,,,,,,,,,,,,,,,,,
8/22/19,133,,,,,,,3,5,305,3,5,160,,,,,,,,,,,,,,,,,,,,,,,,
,,,,,,,,,,,,,,5,3,120,3,1.66,0,,,,,,,,,,,,,,,,,,
,,,,,,,,,,,,,,,,,,,,,,,,,,,,,,,,,,,,,
,,,,,,,,,,,,,,,,,,,,,,,,,,,,,,,,,,,,,
,,,,,,,,,,,,,,,,,,,,,,,,,,,,,,,,,,,,,
,,,,,,,,,,,,,,,,,,,,,,,,,,,,,,,,,,,,,
,,,,,,,,,,,,,,,,,,,,,,,,,,,,,,,,,,,,,
,,,,,,,,,,,,,,,,,,,,,,,,,,,,,,,,,,,,,
,,,,,,,,,,,,,,,,,,,,,,,,,,,,,,,,,,,,,
,,,,,,,,,,,,,,,,,,,,,,,,,,,,,,,,,,,,,
,,,,,,,,,,,,,,,,,,,,,,,,,,,,,,,,,,,,,
,,,,,,,,,,,,,,,,,,,,,,,,,,,,,,,,,,,,,
,,,,,,,,,,,,,,,,,,,,,,,,,,,,,,,,,,,,,
,,,,,,,,,,,,,,,,,,,,,,,,,,,,,,,,,,,,,
,,,,,,,,,,,,,,,,,,,,,,,,,,,,,,,,,,,,,
,,,,,,,,,,,,,,,,,,,,,,,,,,,,,,,,,,,,,